MISSPELLED WORD: DAOG
choice 1
candidate: dog
edit distance: 1
misspelled word alignment: daog
corrected  word alignment: d-og
---------------------------------------------------------
choice 2
candidate: doug
edit distance: 2
misspelled word alignment: dao-g
corrected  word alignment: d-oug
---------------------------------------------------------
choice 3
candidate: do
edit distance: 2
misspelled word alignment: daog
corrected  word alignment: d-o-
---------------------------------------------------------
MISSPELLED WORD: HEALLO
choice 1
candidate: hallow
edit distance: 2
misspelled word alignment: heallo-
corrected  word alignment: h-allow
---------------------------------------------------------
choice 2
candidate: heal
edit distance: 2
misspelled word alignment: heallo
corrected  word alignment: hea-l-
---------------------------------------------------------
choice 3
candidate: hell
edit distance: 2
misspelled word alignment: heallo
corrected  word alignment: he-ll-
---------------------------------------------------------
MISSPELLED WORD: HELLO
choice 1
candidate: hell
edit distance: 1
misspelled word alignment: hello
corrected  word alignment: hell-
---------------------------------------------------------
choice 2
candidate: hell-
edit distance: 2
misspelled word alignment: hello
corrected  word alignment: hell-
---------------------------------------------------------
choice 3
candidate: he'll
edit distance: 2
misspelled word alignment: he-llo
corrected  word alignment: he'll-
---------------------------------------------------------
MISSPELLED WORD: AOT
choice 1
candidate: at
edit distance: 1
misspelled word alignment: aot
corrected  word alignment: a-t
---------------------------------------------------------
choice 2
candidate: art
edit distance: 2
misspelled word alignment: aot
corrected  word alignment: art
---------------------------------------------------------
choice 3
candidate: aut
edit distance: 2
misspelled word alignment: aot
corrected  word alignment: aut
---------------------------------------------------------
MISSPELLED WORD: GOODBYGE
MISSPELLED WORD: GOODBEF
MISSPELLED WORD: LITTALE
choice 1
candidate: little
edit distance: 1
misspelled word alignment: littale
corrected  word alignment: litt-le
---------------------------------------------------------
choice 2
candidate: little-
edit distance: 2
misspelled word alignment: littale-
corrected  word alignment: litt-le-
---------------------------------------------------------
MISSPELLED WORD: TAREE
choice 1
candidate: tree
edit distance: 1
misspelled word alignment: taree
corrected  word alignment: t-ree
---------------------------------------------------------
choice 2
candidate: trees
edit distance: 2
misspelled word alignment: taree-
corrected  word alignment: t-rees
---------------------------------------------------------
choice 3
candidate: tar
edit distance: 2
misspelled word alignment: taree
corrected  word alignment: tar--
---------------------------------------------------------
MISSPELLED WORD: DCOG
choice 1
candidate: dog
edit distance: 1
misspelled word alignment: dcog
corrected  word alignment: d-og
---------------------------------------------------------
choice 2
candidate: cog
edit distance: 1
misspelled word alignment: dcog
corrected  word alignment: -cog
---------------------------------------------------------
choice 3
candidate: doug
edit distance: 2
misspelled word alignment: dco-g
corrected  word alignment: d-oug
---------------------------------------------------------
MISSPELLED WORD: TREED
choice 1
candidate: tree
edit distance: 1
misspelled word alignment: treed
corrected  word alignment: tree-
---------------------------------------------------------
choice 2
candidate: reed
edit distance: 1
misspelled word alignment: treed
corrected  word alignment: -reed
---------------------------------------------------------
choice 3
candidate: trees
edit distance: 2
misspelled word alignment: treed
corrected  word alignment: trees
---------------------------------------------------------
MISSPELLED WORD: GOINAG
choice 1
candidate: going
edit distance: 1
misspelled word alignment: goinag
corrected  word alignment: goin-g
---------------------------------------------------------
choice 2
candidate: gong
edit distance: 2
misspelled word alignment: goinag
corrected  word alignment: go-n-g
---------------------------------------------------------
choice 3
candidate: ging
edit distance: 2
misspelled word alignment: goinag
corrected  word alignment: g-in-g
---------------------------------------------------------
MISSPELLED WORD: AROUND
choice 1
candidate: aground
edit distance: 1
misspelled word alignment: a-round
corrected  word alignment: aground
---------------------------------------------------------
choice 2
candidate: round
edit distance: 1
misspelled word alignment: around
corrected  word alignment: -round
---------------------------------------------------------
choice 3
candidate: abound
edit distance: 2
misspelled word alignment: around
corrected  word alignment: abound
---------------------------------------------------------
MISSPELLED WORD: HUP
choice 1
candidate: up
edit distance: 1
misspelled word alignment: hup
corrected  word alignment: -up
---------------------------------------------------------
choice 2
candidate: hug
edit distance: 2
misspelled word alignment: hup
corrected  word alignment: hug
---------------------------------------------------------
choice 3
candidate: hue
edit distance: 2
misspelled word alignment: hup
corrected  word alignment: hue
---------------------------------------------------------
MISSPELLED WORD: GREJEN
choice 1
candidate: green
edit distance: 1
misspelled word alignment: grejen
corrected  word alignment: gre-en
---------------------------------------------------------
choice 2
candidate: greens
edit distance: 2
misspelled word alignment: grejen-
corrected  word alignment: gre-ens
---------------------------------------------------------
MISSPELLED WORD: OVEER
choice 1
candidate: over
edit distance: 1
misspelled word alignment: oveer
corrected  word alignment: ov-er
---------------------------------------------------------
choice 2
candidate: over-
edit distance: 2
misspelled word alignment: oveer-
corrected  word alignment: ov-er-
---------------------------------------------------------
choice 3
candidate: overt
edit distance: 2
misspelled word alignment: oveer-
corrected  word alignment: ov-ert
---------------------------------------------------------
MISSPELLED WORD: WAATTER
choice 1
candidate: water
edit distance: 2
misspelled word alignment: waatter
corrected  word alignment: w-a-ter
---------------------------------------------------------
MISSPELLED WORD: THET
choice 1
candidate: theft
edit distance: 1
misspelled word alignment: the-t
corrected  word alignment: theft
---------------------------------------------------------
choice 2
candidate: the
edit distance: 1
misspelled word alignment: thet
corrected  word alignment: the-
---------------------------------------------------------
choice 3
candidate: the-
edit distance: 2
misspelled word alignment: thet
corrected  word alignment: the-
---------------------------------------------------------
MISSPELLED WORD: HELLO
choice 1
candidate: hell
edit distance: 1
misspelled word alignment: hello
corrected  word alignment: hell-
---------------------------------------------------------
choice 2
candidate: hell-
edit distance: 2
misspelled word alignment: hello
corrected  word alignment: hell-
---------------------------------------------------------
choice 3
candidate: he'll
edit distance: 2
misspelled word alignment: he-llo
corrected  word alignment: he'll-
---------------------------------------------------------
MISSPELLED WORD: HELLOW
choice 1
candidate: hallow
edit distance: 2
misspelled word alignment: hellow
corrected  word alignment: hallow
---------------------------------------------------------
choice 2
candidate: hell
edit distance: 2
misspelled word alignment: hellow
corrected  word alignment: hell--
---------------------------------------------------------
choice 3
candidate: hollow
edit distance: 2
misspelled word alignment: hellow
corrected  word alignment: hollow
---------------------------------------------------------
MISSPELLED WORD: IIT
choice 1
candidate: ii
edit distance: 1
misspelled word alignment: iit
corrected  word alignment: ii-
---------------------------------------------------------
choice 2
candidate: it
edit distance: 1
misspelled word alignment: iit
corrected  word alignment: -it
---------------------------------------------------------
choice 3
candidate: ist
edit distance: 2
misspelled word alignment: iit
corrected  word alignment: ist
---------------------------------------------------------
MISSPELLED WORD: GOODBYE
MISSPELLED WORD: GOODFEE
MISSPELLED WORD: AROUND
choice 1
candidate: aground
edit distance: 1
misspelled word alignment: a-round
corrected  word alignment: aground
---------------------------------------------------------
choice 2
candidate: round
edit distance: 1
misspelled word alignment: around
corrected  word alignment: -round
---------------------------------------------------------
choice 3
candidate: abound
edit distance: 2
misspelled word alignment: around
corrected  word alignment: abound
---------------------------------------------------------
MISSPELLED WORD: AROUND
choice 1
candidate: aground
edit distance: 1
misspelled word alignment: a-round
corrected  word alignment: aground
---------------------------------------------------------
choice 2
candidate: round
edit distance: 1
misspelled word alignment: around
corrected  word alignment: -round
---------------------------------------------------------
choice 3
candidate: abound
edit distance: 2
misspelled word alignment: around
corrected  word alignment: abound
---------------------------------------------------------
MISSPELLED WORD: AROUND
choice 1
candidate: aground
edit distance: 1
misspelled word alignment: a-round
corrected  word alignment: aground
---------------------------------------------------------
choice 2
candidate: round
edit distance: 1
misspelled word alignment: around
corrected  word alignment: -round
---------------------------------------------------------
choice 3
candidate: abound
edit distance: 2
misspelled word alignment: around
corrected  word alignment: abound
---------------------------------------------------------
MISSPELLED WORD: AROUND
choice 1
candidate: aground
edit distance: 1
misspelled word alignment: a-round
corrected  word alignment: aground
---------------------------------------------------------
choice 2
candidate: round
edit distance: 1
misspelled word alignment: around
corrected  word alignment: -round
---------------------------------------------------------
choice 3
candidate: abound
edit distance: 2
misspelled word alignment: around
corrected  word alignment: abound
---------------------------------------------------------
MISSPELLED WORD: AGATIN
choice 1
candidate: again
edit distance: 1
misspelled word alignment: agatin
corrected  word alignment: aga-in
---------------------------------------------------------
choice 2
candidate: again-
edit distance: 2
misspelled word alignment: agatin-
corrected  word alignment: aga-in-
---------------------------------------------------------
choice 3
candidate: gain
edit distance: 2
misspelled word alignment: agatin
corrected  word alignment: -ga-in
---------------------------------------------------------
MISSPELLED WORD: YELLOWW
choice 1
candidate: yellow
edit distance: 1
misspelled word alignment: yelloww
corrected  word alignment: yello-w
---------------------------------------------------------
choice 2
candidate: yellows
edit distance: 2
misspelled word alignment: yelloww
corrected  word alignment: yellows
---------------------------------------------------------
MISSPELLED WORD: FHERE
choice 1
candidate: fere
edit distance: 1
misspelled word alignment: fhere
corrected  word alignment: f-ere
---------------------------------------------------------
choice 2
candidate: here
edit distance: 1
misspelled word alignment: fhere
corrected  word alignment: -here
---------------------------------------------------------
choice 3
candidate: fer
edit distance: 2
misspelled word alignment: fhere
corrected  word alignment: f-er-
---------------------------------------------------------
MISSPELLED WORD: BOET
choice 1
candidate: bet
edit distance: 1
misspelled word alignment: boet
corrected  word alignment: b-et
---------------------------------------------------------
choice 2
candidate: boyet
edit distance: 1
misspelled word alignment: bo-et
corrected  word alignment: boyet
---------------------------------------------------------
choice 3
candidate: bent
edit distance: 2
misspelled word alignment: boe-t
corrected  word alignment: b-ent
---------------------------------------------------------
MISSPELLED WORD: DOGAS
choice 1
candidate: dogs
edit distance: 1
misspelled word alignment: dogas
corrected  word alignment: dog-s
---------------------------------------------------------
choice 2
candidate: dog
edit distance: 2
misspelled word alignment: dogas
corrected  word alignment: dog--
---------------------------------------------------------
choice 3
candidate: douglas
edit distance: 2
misspelled word alignment: do-g-as
corrected  word alignment: douglas
---------------------------------------------------------
MISSPELLED WORD: PLAAY
choice 1
candidate: play
edit distance: 1
misspelled word alignment: plaay
corrected  word alignment: pl-ay
---------------------------------------------------------
choice 2
candidate: play-
edit distance: 2
misspelled word alignment: plaay-
corrected  word alignment: pl-ay-
---------------------------------------------------------
choice 3
candidate: ply
edit distance: 2
misspelled word alignment: plaay
corrected  word alignment: pl--y
---------------------------------------------------------
MISSPELLED WORD: PLAAY
choice 1
candidate: play
edit distance: 1
misspelled word alignment: plaay
corrected  word alignment: pl-ay
---------------------------------------------------------
choice 2
candidate: play-
edit distance: 2
misspelled word alignment: plaay-
corrected  word alignment: pl-ay-
---------------------------------------------------------
choice 3
candidate: ply
edit distance: 2
misspelled word alignment: plaay
corrected  word alignment: pl--y
---------------------------------------------------------
MISSPELLED WORD: HELLO
choice 1
candidate: hell
edit distance: 1
misspelled word alignment: hello
corrected  word alignment: hell-
---------------------------------------------------------
choice 2
candidate: hell-
edit distance: 2
misspelled word alignment: hello
corrected  word alignment: hell-
---------------------------------------------------------
choice 3
candidate: he'll
edit distance: 2
misspelled word alignment: he-llo
corrected  word alignment: he'll-
---------------------------------------------------------
MISSPELLED WORD: AGEIN
choice 1
candidate: agent
edit distance: 2
misspelled word alignment: agein-
corrected  word alignment: age-nt
---------------------------------------------------------
choice 2
candidate: age
edit distance: 2
misspelled word alignment: agein
corrected  word alignment: age--
---------------------------------------------------------
choice 3
candidate: again
edit distance: 2
misspelled word alignment: agein
corrected  word alignment: again
---------------------------------------------------------
MISSPELLED WORD: HELLO
choice 1
candidate: hell
edit distance: 1
misspelled word alignment: hello
corrected  word alignment: hell-
---------------------------------------------------------
choice 2
candidate: hell-
edit distance: 2
misspelled word alignment: hello
corrected  word alignment: hell-
---------------------------------------------------------
choice 3
candidate: he'll
edit distance: 2
misspelled word alignment: he-llo
corrected  word alignment: he'll-
---------------------------------------------------------
MISSPELLED WORD: MHY
choice 1
candidate: my
edit distance: 1
misspelled word alignment: mhy
corrected  word alignment: m-y
---------------------------------------------------------
choice 2
candidate: may
edit distance: 2
misspelled word alignment: mhy
corrected  word alignment: may
---------------------------------------------------------
choice 3
candidate: my-
edit distance: 2
misspelled word alignment: mhy-
corrected  word alignment: m-y-
---------------------------------------------------------
MISSPELLED WORD: GOODBYE
MISSPELLED WORD: AGIN
choice 1
candidate: gin
edit distance: 1
misspelled word alignment: agin
corrected  word alignment: -gin
---------------------------------------------------------
choice 2
candidate: again
edit distance: 1
misspelled word alignment: ag-in
corrected  word alignment: again
---------------------------------------------------------
choice 3
candidate: ai
edit distance: 2
misspelled word alignment: agin
corrected  word alignment: a-i-
---------------------------------------------------------
MISSPELLED WORD: GOODBYE
MISSPELLED WORD: GOIG
choice 1
candidate: going
edit distance: 1
misspelled word alignment: goi-g
corrected  word alignment: going
---------------------------------------------------------
choice 2
candidate: gig
edit distance: 1
misspelled word alignment: goig
corrected  word alignment: g-ig
---------------------------------------------------------
choice 3
candidate: gi
edit distance: 2
misspelled word alignment: goig
corrected  word alignment: g-i-
---------------------------------------------------------
MISSPELLED WORD: THOOSE
choice 1
candidate: those
edit distance: 1
misspelled word alignment: thoose
corrected  word alignment: th-ose
---------------------------------------------------------
choice 2
candidate: those-
edit distance: 2
misspelled word alignment: thoose-
corrected  word alignment: th-ose-
---------------------------------------------------------
choice 3
candidate: hose
edit distance: 2
misspelled word alignment: thoose
corrected  word alignment: -h-ose
---------------------------------------------------------
MISSPELLED WORD: DOOGS
choice 1
candidate: dogs
edit distance: 1
misspelled word alignment: doogs
corrected  word alignment: d-ogs
---------------------------------------------------------
choice 2
candidate: doors
edit distance: 2
misspelled word alignment: doogs
corrected  word alignment: doors
---------------------------------------------------------
choice 3
candidate: dog
edit distance: 2
misspelled word alignment: doogs
corrected  word alignment: d-og-
---------------------------------------------------------
MISSPELLED WORD: DOGES
choice 1
candidate: dogs
edit distance: 1
misspelled word alignment: doges
corrected  word alignment: dog-s
---------------------------------------------------------
choice 2
candidate: does
edit distance: 1
misspelled word alignment: doges
corrected  word alignment: do-es
---------------------------------------------------------
choice 3
candidate: dodge
edit distance: 2
misspelled word alignment: do-ges
corrected  word alignment: dodge-
---------------------------------------------------------
MISSPELLED WORD: NW
choice 1
candidate: now
edit distance: 1
misspelled word alignment: n-w
corrected  word alignment: now
---------------------------------------------------------
choice 2
candidate: new
edit distance: 1
misspelled word alignment: n-w
corrected  word alignment: new
---------------------------------------------------------
choice 3
candidate: ne
edit distance: 2
misspelled word alignment: nw
corrected  word alignment: ne
---------------------------------------------------------
MISSPELLED WORD: GREN
choice 1
candidate: green
edit distance: 1
misspelled word alignment: gr-en
corrected  word alignment: green
---------------------------------------------------------
choice 2
candidate: greens
edit distance: 2
misspelled word alignment: gr-en-
corrected  word alignment: greens
---------------------------------------------------------
choice 3
candidate: gent
edit distance: 2
misspelled word alignment: gren-
corrected  word alignment: g-ent
---------------------------------------------------------
MISSPELLED WORD: NOOW
choice 1
candidate: now
edit distance: 1
misspelled word alignment: noow
corrected  word alignment: n-ow
---------------------------------------------------------
choice 2
candidate: nook
edit distance: 2
misspelled word alignment: noow
corrected  word alignment: nook
---------------------------------------------------------
choice 3
candidate: no
edit distance: 2
misspelled word alignment: noow
corrected  word alignment: n-o-
---------------------------------------------------------
MISSPELLED WORD: TIIMEE
choice 1
candidate: time
edit distance: 2
misspelled word alignment: tiimee
corrected  word alignment: t-im-e
---------------------------------------------------------
MISSPELLED WORD: THEEE
choice 1
candidate: thee
edit distance: 1
misspelled word alignment: theee
corrected  word alignment: th-ee
---------------------------------------------------------
choice 2
candidate: there
edit distance: 2
misspelled word alignment: theee
corrected  word alignment: there
---------------------------------------------------------
choice 3
candidate: these
edit distance: 2
misspelled word alignment: theee
corrected  word alignment: these
---------------------------------------------------------
MISSPELLED WORD: DOHS
choice 1
candidate: dost
edit distance: 2
misspelled word alignment: dohs-
corrected  word alignment: do-st
---------------------------------------------------------
choice 2
candidate: do
edit distance: 2
misspelled word alignment: dohs
corrected  word alignment: do--
---------------------------------------------------------
choice 3
candidate: doth
edit distance: 2
misspelled word alignment: do-hs
corrected  word alignment: doth-
---------------------------------------------------------
MISSPELLED WORD: THAY
choice 1
candidate: thy
edit distance: 1
misspelled word alignment: thay
corrected  word alignment: th-y
---------------------------------------------------------
choice 2
candidate: hay
edit distance: 1
misspelled word alignment: thay
corrected  word alignment: -hay
---------------------------------------------------------
choice 3
candidate: that
edit distance: 2
misspelled word alignment: thay
corrected  word alignment: that
---------------------------------------------------------
MISSPELLED WORD: TEY
choice 1
candidate: te
edit distance: 1
misspelled word alignment: tey
corrected  word alignment: te-
---------------------------------------------------------
choice 2
candidate: they
edit distance: 1
misspelled word alignment: t-ey
corrected  word alignment: they
---------------------------------------------------------
choice 3
candidate: ey
edit distance: 1
misspelled word alignment: tey
corrected  word alignment: -ey
---------------------------------------------------------
MISSPELLED WORD: PALTY
choice 1
candidate: paly
edit distance: 1
misspelled word alignment: palty
corrected  word alignment: pal-y
---------------------------------------------------------
choice 2
candidate: paltry
edit distance: 1
misspelled word alignment: palt-y
corrected  word alignment: paltry
---------------------------------------------------------
choice 3
candidate: pat
edit distance: 2
misspelled word alignment: palty
corrected  word alignment: pa-t-
---------------------------------------------------------
MISSPELLED WORD: YLLOW
choice 1
candidate: yellow
edit distance: 1
misspelled word alignment: y-llow
corrected  word alignment: yellow
---------------------------------------------------------
choice 2
candidate: yellows
edit distance: 2
misspelled word alignment: y-llow-
corrected  word alignment: yellows
---------------------------------------------------------
choice 3
candidate: low
edit distance: 2
misspelled word alignment: yllow
corrected  word alignment: --low
---------------------------------------------------------
MISSPELLED WORD: PATY
choice 1
candidate: pat
edit distance: 1
misspelled word alignment: paty
corrected  word alignment: pat-
---------------------------------------------------------
choice 2
candidate: patay
edit distance: 1
misspelled word alignment: pat-y
corrected  word alignment: patay
---------------------------------------------------------
choice 3
candidate: party
edit distance: 1
misspelled word alignment: pa-ty
corrected  word alignment: party
---------------------------------------------------------
MISSPELLED WORD: HELLO
choice 1
candidate: hell
edit distance: 1
misspelled word alignment: hello
corrected  word alignment: hell-
---------------------------------------------------------
choice 2
candidate: hell-
edit distance: 2
misspelled word alignment: hello
corrected  word alignment: hell-
---------------------------------------------------------
choice 3
candidate: he'll
edit distance: 2
misspelled word alignment: he-llo
corrected  word alignment: he'll-
---------------------------------------------------------
MISSPELLED WORD: AGAN
choice 1
candidate: pagan
edit distance: 1
misspelled word alignment: -agan
corrected  word alignment: pagan
---------------------------------------------------------
choice 2
candidate: gan
edit distance: 1
misspelled word alignment: agan
corrected  word alignment: -gan
---------------------------------------------------------
choice 3
candidate: again
edit distance: 1
misspelled word alignment: aga-n
corrected  word alignment: again
---------------------------------------------------------
MISSPELLED WORD: MHY
choice 1
candidate: my
edit distance: 1
misspelled word alignment: mhy
corrected  word alignment: m-y
---------------------------------------------------------
choice 2
candidate: may
edit distance: 2
misspelled word alignment: mhy
corrected  word alignment: may
---------------------------------------------------------
choice 3
candidate: my-
edit distance: 2
misspelled word alignment: mhy-
corrected  word alignment: m-y-
---------------------------------------------------------
MISSPELLED WORD: LKE
choice 1
candidate: lake
edit distance: 1
misspelled word alignment: l-ke
corrected  word alignment: lake
---------------------------------------------------------
choice 2
candidate: le
edit distance: 1
misspelled word alignment: lke
corrected  word alignment: l-e
---------------------------------------------------------
choice 3
candidate: luke
edit distance: 1
misspelled word alignment: l-ke
corrected  word alignment: luke
---------------------------------------------------------
MISSPELLED WORD: GOODBYE
MISSPELLED WORD: GOODBYE

 NUMBER OF MISSPELLED WORDS ACCORDING TO THE SHAKESPEAREDICTIONARY: 61

SCRABBLE CHECK
MISSPELLED WORD: DAOG
choice 1
candidate: dog
edit distance: 1
misspelled word alignment: daog
corrected  word alignment: d-og
---------------------------------------------------------
choice 2
candidate: dag
edit distance: 1
misspelled word alignment: daog
corrected  word alignment: da-g
---------------------------------------------------------
choice 3
candidate: drag
edit distance: 2
misspelled word alignment: d-aog
corrected  word alignment: dra-g
---------------------------------------------------------
MISSPELLED WORD: HEALLO
choice 1
candidate: hello
edit distance: 1
misspelled word alignment: heallo
corrected  word alignment: he-llo
---------------------------------------------------------
choice 2
candidate: hallo
edit distance: 1
misspelled word alignment: heallo
corrected  word alignment: h-allo
---------------------------------------------------------
choice 3
candidate: helo
edit distance: 2
misspelled word alignment: heallo
corrected  word alignment: he--lo
---------------------------------------------------------
MISSPELLED WORD: I
choice 1
candidate: xi
edit distance: 1
misspelled word alignment: -i
corrected  word alignment: xi
---------------------------------------------------------
choice 2
candidate: ti
edit distance: 1
misspelled word alignment: -i
corrected  word alignment: ti
---------------------------------------------------------
choice 3
candidate: si
edit distance: 1
misspelled word alignment: -i
corrected  word alignment: si
---------------------------------------------------------
MISSPELLED WORD: AOT
choice 1
candidate: at
edit distance: 1
misspelled word alignment: aot
corrected  word alignment: a-t
---------------------------------------------------------
choice 2
candidate: azoth
edit distance: 2
misspelled word alignment: a-ot-
corrected  word alignment: azoth
---------------------------------------------------------
choice 3
candidate: azote
edit distance: 2
misspelled word alignment: a-ot-
corrected  word alignment: azote
---------------------------------------------------------
MISSPELLED WORD: GOODBYGE
choice 1
candidate: goodbye
edit distance: 1
misspelled word alignment: goodbyge
corrected  word alignment: goodby-e
---------------------------------------------------------
choice 2
candidate: goodbyes
edit distance: 2
misspelled word alignment: goodbyge-
corrected  word alignment: goodby-es
---------------------------------------------------------
choice 3
candidate: goodby
edit distance: 2
misspelled word alignment: goodbyge
corrected  word alignment: goodby--
---------------------------------------------------------
MISSPELLED WORD: GOODBEF
choice 1
candidate: goodbye
edit distance: 2
misspelled word alignment: goodb-ef
corrected  word alignment: goodbye-
---------------------------------------------------------
MISSPELLED WORD: LITTALE
choice 1
candidate: little
edit distance: 1
misspelled word alignment: littale
corrected  word alignment: litt-le
---------------------------------------------------------
choice 2
candidate: littles
edit distance: 2
misspelled word alignment: littale-
corrected  word alignment: litt-les
---------------------------------------------------------
choice 3
candidate: littler
edit distance: 2
misspelled word alignment: littale-
corrected  word alignment: litt-ler
---------------------------------------------------------
MISSPELLED WORD: A
choice 1
candidate: za
edit distance: 1
misspelled word alignment: -a
corrected  word alignment: za
---------------------------------------------------------
choice 2
candidate: ya
edit distance: 1
misspelled word alignment: -a
corrected  word alignment: ya
---------------------------------------------------------
choice 3
candidate: ta
edit distance: 1
misspelled word alignment: -a
corrected  word alignment: ta
---------------------------------------------------------
MISSPELLED WORD: A
choice 1
candidate: za
edit distance: 1
misspelled word alignment: -a
corrected  word alignment: za
---------------------------------------------------------
choice 2
candidate: ya
edit distance: 1
misspelled word alignment: -a
corrected  word alignment: ya
---------------------------------------------------------
choice 3
candidate: ta
edit distance: 1
misspelled word alignment: -a
corrected  word alignment: ta
---------------------------------------------------------
MISSPELLED WORD: TAREE
choice 1
candidate: tree
edit distance: 1
misspelled word alignment: taree
corrected  word alignment: t-ree
---------------------------------------------------------
choice 2
candidate: tare
edit distance: 1
misspelled word alignment: taree
corrected  word alignment: tar-e
---------------------------------------------------------
choice 3
candidate: trees
edit distance: 2
misspelled word alignment: taree-
corrected  word alignment: t-rees
---------------------------------------------------------
MISSPELLED WORD: A
choice 1
candidate: za
edit distance: 1
misspelled word alignment: -a
corrected  word alignment: za
---------------------------------------------------------
choice 2
candidate: ya
edit distance: 1
misspelled word alignment: -a
corrected  word alignment: ya
---------------------------------------------------------
choice 3
candidate: ta
edit distance: 1
misspelled word alignment: -a
corrected  word alignment: ta
---------------------------------------------------------
MISSPELLED WORD: A
choice 1
candidate: za
edit distance: 1
misspelled word alignment: -a
corrected  word alignment: za
---------------------------------------------------------
choice 2
candidate: ya
edit distance: 1
misspelled word alignment: -a
corrected  word alignment: ya
---------------------------------------------------------
choice 3
candidate: ta
edit distance: 1
misspelled word alignment: -a
corrected  word alignment: ta
---------------------------------------------------------
MISSPELLED WORD: A
choice 1
candidate: za
edit distance: 1
misspelled word alignment: -a
corrected  word alignment: za
---------------------------------------------------------
choice 2
candidate: ya
edit distance: 1
misspelled word alignment: -a
corrected  word alignment: ya
---------------------------------------------------------
choice 3
candidate: ta
edit distance: 1
misspelled word alignment: -a
corrected  word alignment: ta
---------------------------------------------------------
MISSPELLED WORD: DCOG
choice 1
candidate: dog
edit distance: 1
misspelled word alignment: dcog
corrected  word alignment: d-og
---------------------------------------------------------
choice 2
candidate: cog
edit distance: 1
misspelled word alignment: dcog
corrected  word alignment: -cog
---------------------------------------------------------
choice 3
candidate: dong
edit distance: 2
misspelled word alignment: dco-g
corrected  word alignment: d-ong
---------------------------------------------------------
MISSPELLED WORD: A
choice 1
candidate: za
edit distance: 1
misspelled word alignment: -a
corrected  word alignment: za
---------------------------------------------------------
choice 2
candidate: ya
edit distance: 1
misspelled word alignment: -a
corrected  word alignment: ya
---------------------------------------------------------
choice 3
candidate: ta
edit distance: 1
misspelled word alignment: -a
corrected  word alignment: ta
---------------------------------------------------------
MISSPELLED WORD: GOINAG
choice 1
candidate: going
edit distance: 1
misspelled word alignment: goinag
corrected  word alignment: goin-g
---------------------------------------------------------
choice 2
candidate: goring
edit distance: 2
misspelled word alignment: go-inag
corrected  word alignment: gorin-g
---------------------------------------------------------
choice 3
candidate: gong
edit distance: 2
misspelled word alignment: goinag
corrected  word alignment: go-n-g
---------------------------------------------------------
MISSPELLED WORD: A
choice 1
candidate: za
edit distance: 1
misspelled word alignment: -a
corrected  word alignment: za
---------------------------------------------------------
choice 2
candidate: ya
edit distance: 1
misspelled word alignment: -a
corrected  word alignment: ya
---------------------------------------------------------
choice 3
candidate: ta
edit distance: 1
misspelled word alignment: -a
corrected  word alignment: ta
---------------------------------------------------------
MISSPELLED WORD: A
choice 1
candidate: za
edit distance: 1
misspelled word alignment: -a
corrected  word alignment: za
---------------------------------------------------------
choice 2
candidate: ya
edit distance: 1
misspelled word alignment: -a
corrected  word alignment: ya
---------------------------------------------------------
choice 3
candidate: ta
edit distance: 1
misspelled word alignment: -a
corrected  word alignment: ta
---------------------------------------------------------
MISSPELLED WORD: GREJEN
choice 1
candidate: green
edit distance: 1
misspelled word alignment: grejen
corrected  word alignment: gre-en
---------------------------------------------------------
choice 2
candidate: gren
edit distance: 2
misspelled word alignment: grejen
corrected  word alignment: gr--en
---------------------------------------------------------
choice 3
candidate: greeny
edit distance: 2
misspelled word alignment: grejen-
corrected  word alignment: gre-eny
---------------------------------------------------------
MISSPELLED WORD: PLUE
choice 1
candidate: plume
edit distance: 1
misspelled word alignment: plu-e
corrected  word alignment: plume
---------------------------------------------------------
choice 2
candidate: pure
edit distance: 2
misspelled word alignment: plu-e
corrected  word alignment: p-ure
---------------------------------------------------------
choice 3
candidate: pulu
edit distance: 2
misspelled word alignment: p-lue
corrected  word alignment: pulu-
---------------------------------------------------------
MISSPELLED WORD: A
choice 1
candidate: za
edit distance: 1
misspelled word alignment: -a
corrected  word alignment: za
---------------------------------------------------------
choice 2
candidate: ya
edit distance: 1
misspelled word alignment: -a
corrected  word alignment: ya
---------------------------------------------------------
choice 3
candidate: ta
edit distance: 1
misspelled word alignment: -a
corrected  word alignment: ta
---------------------------------------------------------
MISSPELLED WORD: A
choice 1
candidate: za
edit distance: 1
misspelled word alignment: -a
corrected  word alignment: za
---------------------------------------------------------
choice 2
candidate: ya
edit distance: 1
misspelled word alignment: -a
corrected  word alignment: ya
---------------------------------------------------------
choice 3
candidate: ta
edit distance: 1
misspelled word alignment: -a
corrected  word alignment: ta
---------------------------------------------------------
MISSPELLED WORD: OVEER
choice 1
candidate: veer
edit distance: 1
misspelled word alignment: oveer
corrected  word alignment: -veer
---------------------------------------------------------
choice 2
candidate: over
edit distance: 1
misspelled word alignment: oveer
corrected  word alignment: ov-er
---------------------------------------------------------
choice 3
candidate: overt
edit distance: 2
misspelled word alignment: oveer-
corrected  word alignment: ov-ert
---------------------------------------------------------
MISSPELLED WORD: A
choice 1
candidate: za
edit distance: 1
misspelled word alignment: -a
corrected  word alignment: za
---------------------------------------------------------
choice 2
candidate: ya
edit distance: 1
misspelled word alignment: -a
corrected  word alignment: ya
---------------------------------------------------------
choice 3
candidate: ta
edit distance: 1
misspelled word alignment: -a
corrected  word alignment: ta
---------------------------------------------------------
MISSPELLED WORD: A
choice 1
candidate: za
edit distance: 1
misspelled word alignment: -a
corrected  word alignment: za
---------------------------------------------------------
choice 2
candidate: ya
edit distance: 1
misspelled word alignment: -a
corrected  word alignment: ya
---------------------------------------------------------
choice 3
candidate: ta
edit distance: 1
misspelled word alignment: -a
corrected  word alignment: ta
---------------------------------------------------------
MISSPELLED WORD: A
choice 1
candidate: za
edit distance: 1
misspelled word alignment: -a
corrected  word alignment: za
---------------------------------------------------------
choice 2
candidate: ya
edit distance: 1
misspelled word alignment: -a
corrected  word alignment: ya
---------------------------------------------------------
choice 3
candidate: ta
edit distance: 1
misspelled word alignment: -a
corrected  word alignment: ta
---------------------------------------------------------
MISSPELLED WORD: A
choice 1
candidate: za
edit distance: 1
misspelled word alignment: -a
corrected  word alignment: za
---------------------------------------------------------
choice 2
candidate: ya
edit distance: 1
misspelled word alignment: -a
corrected  word alignment: ya
---------------------------------------------------------
choice 3
candidate: ta
edit distance: 1
misspelled word alignment: -a
corrected  word alignment: ta
---------------------------------------------------------
MISSPELLED WORD: A
choice 1
candidate: za
edit distance: 1
misspelled word alignment: -a
corrected  word alignment: za
---------------------------------------------------------
choice 2
candidate: ya
edit distance: 1
misspelled word alignment: -a
corrected  word alignment: ya
---------------------------------------------------------
choice 3
candidate: ta
edit distance: 1
misspelled word alignment: -a
corrected  word alignment: ta
---------------------------------------------------------
MISSPELLED WORD: WAATTER
choice 1
candidate: watter
edit distance: 1
misspelled word alignment: waatter
corrected  word alignment: w-atter
---------------------------------------------------------
choice 2
candidate: water
edit distance: 2
misspelled word alignment: waatter
corrected  word alignment: w-a-ter
---------------------------------------------------------
choice 3
candidate: swatter
edit distance: 2
misspelled word alignment: -waatter
corrected  word alignment: sw-atter
---------------------------------------------------------
MISSPELLED WORD: A
choice 1
candidate: za
edit distance: 1
misspelled word alignment: -a
corrected  word alignment: za
---------------------------------------------------------
choice 2
candidate: ya
edit distance: 1
misspelled word alignment: -a
corrected  word alignment: ya
---------------------------------------------------------
choice 3
candidate: ta
edit distance: 1
misspelled word alignment: -a
corrected  word alignment: ta
---------------------------------------------------------
MISSPELLED WORD: A
choice 1
candidate: za
edit distance: 1
misspelled word alignment: -a
corrected  word alignment: za
---------------------------------------------------------
choice 2
candidate: ya
edit distance: 1
misspelled word alignment: -a
corrected  word alignment: ya
---------------------------------------------------------
choice 3
candidate: ta
edit distance: 1
misspelled word alignment: -a
corrected  word alignment: ta
---------------------------------------------------------
MISSPELLED WORD: THET
choice 1
candidate: thete
edit distance: 1
misspelled word alignment: thet-
corrected  word alignment: thete
---------------------------------------------------------
choice 2
candidate: theta
edit distance: 1
misspelled word alignment: thet-
corrected  word alignment: theta
---------------------------------------------------------
choice 3
candidate: theft
edit distance: 1
misspelled word alignment: the-t
corrected  word alignment: theft
---------------------------------------------------------
MISSPELLED WORD: HELLOW
choice 1
candidate: hello
edit distance: 1
misspelled word alignment: hellow
corrected  word alignment: hello-
---------------------------------------------------------
choice 2
candidate: hollow
edit distance: 2
misspelled word alignment: hellow
corrected  word alignment: hollow
---------------------------------------------------------
choice 3
candidate: helo
edit distance: 2
misspelled word alignment: hellow
corrected  word alignment: he-lo-
---------------------------------------------------------
MISSPELLED WORD: I
choice 1
candidate: xi
edit distance: 1
misspelled word alignment: -i
corrected  word alignment: xi
---------------------------------------------------------
choice 2
candidate: ti
edit distance: 1
misspelled word alignment: -i
corrected  word alignment: ti
---------------------------------------------------------
choice 3
candidate: si
edit distance: 1
misspelled word alignment: -i
corrected  word alignment: si
---------------------------------------------------------
MISSPELLED WORD: IIT
choice 1
candidate: it
edit distance: 1
misspelled word alignment: iit
corrected  word alignment: -it
---------------------------------------------------------
choice 2
candidate: its
edit distance: 2
misspelled word alignment: iit-
corrected  word alignment: -its
---------------------------------------------------------
choice 3
candidate: ita
edit distance: 2
misspelled word alignment: iit-
corrected  word alignment: -ita
---------------------------------------------------------
MISSPELLED WORD: GOODFEE
MISSPELLED WORD: AGATIN
choice 1
candidate: again
edit distance: 1
misspelled word alignment: agatin
corrected  word alignment: aga-in
---------------------------------------------------------
choice 2
candidate: agnation
edit distance: 2
misspelled word alignment: ag-ati-n
corrected  word alignment: agnation
---------------------------------------------------------
choice 3
candidate: agin
edit distance: 2
misspelled word alignment: agatin
corrected  word alignment: ag--in
---------------------------------------------------------
MISSPELLED WORD: YELLOWW
choice 1
candidate: yellow
edit distance: 1
misspelled word alignment: yelloww
corrected  word alignment: yello-w
---------------------------------------------------------
choice 2
candidate: yellowy
edit distance: 2
misspelled word alignment: yelloww
corrected  word alignment: yellowy
---------------------------------------------------------
choice 3
candidate: yellows
edit distance: 2
misspelled word alignment: yelloww
corrected  word alignment: yellows
---------------------------------------------------------
MISSPELLED WORD: FHERE
choice 1
candidate: here
edit distance: 1
misspelled word alignment: fhere
corrected  word alignment: -here
---------------------------------------------------------
choice 2
candidate: fere
edit distance: 1
misspelled word alignment: fhere
corrected  word alignment: f-ere
---------------------------------------------------------
choice 3
candidate: frere
edit distance: 2
misspelled word alignment: fhere
corrected  word alignment: frere
---------------------------------------------------------
MISSPELLED WORD: A
choice 1
candidate: za
edit distance: 1
misspelled word alignment: -a
corrected  word alignment: za
---------------------------------------------------------
choice 2
candidate: ya
edit distance: 1
misspelled word alignment: -a
corrected  word alignment: ya
---------------------------------------------------------
choice 3
candidate: ta
edit distance: 1
misspelled word alignment: -a
corrected  word alignment: ta
---------------------------------------------------------
MISSPELLED WORD: A
choice 1
candidate: za
edit distance: 1
misspelled word alignment: -a
corrected  word alignment: za
---------------------------------------------------------
choice 2
candidate: ya
edit distance: 1
misspelled word alignment: -a
corrected  word alignment: ya
---------------------------------------------------------
choice 3
candidate: ta
edit distance: 1
misspelled word alignment: -a
corrected  word alignment: ta
---------------------------------------------------------
MISSPELLED WORD: BOET
choice 1
candidate: bowet
edit distance: 1
misspelled word alignment: bo-et
corrected  word alignment: bowet
---------------------------------------------------------
choice 2
candidate: bot
edit distance: 1
misspelled word alignment: boet
corrected  word alignment: bo-t
---------------------------------------------------------
choice 3
candidate: bet
edit distance: 1
misspelled word alignment: boet
corrected  word alignment: b-et
---------------------------------------------------------
MISSPELLED WORD: DOGAS
choice 1
candidate: dongas
edit distance: 1
misspelled word alignment: do-gas
corrected  word alignment: dongas
---------------------------------------------------------
choice 2
candidate: dogs
edit distance: 1
misspelled word alignment: dogas
corrected  word alignment: dog-s
---------------------------------------------------------
choice 3
candidate: dogmas
edit distance: 1
misspelled word alignment: dog-as
corrected  word alignment: dogmas
---------------------------------------------------------
MISSPELLED WORD: PLAAY
choice 1
candidate: play
edit distance: 1
misspelled word alignment: plaay
corrected  word alignment: pl-ay
---------------------------------------------------------
choice 2
candidate: ply
edit distance: 2
misspelled word alignment: plaay
corrected  word alignment: pl--y
---------------------------------------------------------
choice 3
candidate: plaza
edit distance: 2
misspelled word alignment: pla-ay
corrected  word alignment: plaza-
---------------------------------------------------------
MISSPELLED WORD: PLAAY
choice 1
candidate: play
edit distance: 1
misspelled word alignment: plaay
corrected  word alignment: pl-ay
---------------------------------------------------------
choice 2
candidate: ply
edit distance: 2
misspelled word alignment: plaay
corrected  word alignment: pl--y
---------------------------------------------------------
choice 3
candidate: plaza
edit distance: 2
misspelled word alignment: pla-ay
corrected  word alignment: plaza-
---------------------------------------------------------
MISSPELLED WORD: AGEIN
choice 1
candidate: agin
edit distance: 1
misspelled word alignment: agein
corrected  word alignment: ag-in
---------------------------------------------------------
choice 2
candidate: agen
edit distance: 1
misspelled word alignment: agein
corrected  word alignment: age-n
---------------------------------------------------------
choice 3
candidate: ageing
edit distance: 1
misspelled word alignment: agein-
corrected  word alignment: ageing
---------------------------------------------------------
MISSPELLED WORD: MHY
choice 1
candidate: my
edit distance: 1
misspelled word alignment: mhy
corrected  word alignment: m-y
---------------------------------------------------------
choice 2
candidate: mythy
edit distance: 2
misspelled word alignment: m--hy
corrected  word alignment: mythy
---------------------------------------------------------
choice 3
candidate: myc
edit distance: 2
misspelled word alignment: mhy-
corrected  word alignment: m-yc
---------------------------------------------------------
MISSPELLED WORD: I
choice 1
candidate: xi
edit distance: 1
misspelled word alignment: -i
corrected  word alignment: xi
---------------------------------------------------------
choice 2
candidate: ti
edit distance: 1
misspelled word alignment: -i
corrected  word alignment: ti
---------------------------------------------------------
choice 3
candidate: si
edit distance: 1
misspelled word alignment: -i
corrected  word alignment: si
---------------------------------------------------------
MISSPELLED WORD: GOIG
choice 1
candidate: going
edit distance: 1
misspelled word alignment: goi-g
corrected  word alignment: going
---------------------------------------------------------
choice 2
candidate: gig
edit distance: 1
misspelled word alignment: goig
corrected  word alignment: g-ig
---------------------------------------------------------
choice 3
candidate: grog
edit distance: 2
misspelled word alignment: g-oig
corrected  word alignment: gro-g
---------------------------------------------------------
MISSPELLED WORD: THOOSE
choice 1
candidate: those
edit distance: 1
misspelled word alignment: thoose
corrected  word alignment: th-ose
---------------------------------------------------------
choice 2
candidate: tose
edit distance: 2
misspelled word alignment: thoose
corrected  word alignment: t--ose
---------------------------------------------------------
choice 3
candidate: torose
edit distance: 2
misspelled word alignment: tho-ose
corrected  word alignment: t-orose
---------------------------------------------------------
MISSPELLED WORD: DOOGS
choice 1
candidate: droogs
edit distance: 1
misspelled word alignment: d-oogs
corrected  word alignment: droogs
---------------------------------------------------------
choice 2
candidate: doos
edit distance: 1
misspelled word alignment: doogs
corrected  word alignment: doo-s
---------------------------------------------------------
choice 3
candidate: dogs
edit distance: 1
misspelled word alignment: doogs
corrected  word alignment: d-ogs
---------------------------------------------------------
MISSPELLED WORD: NW
choice 1
candidate: now
edit distance: 1
misspelled word alignment: n-w
corrected  word alignment: now
---------------------------------------------------------
choice 2
candidate: new
edit distance: 1
misspelled word alignment: n-w
corrected  word alignment: new
---------------------------------------------------------
choice 3
candidate: naw
edit distance: 1
misspelled word alignment: n-w
corrected  word alignment: naw
---------------------------------------------------------
MISSPELLED WORD: A
choice 1
candidate: za
edit distance: 1
misspelled word alignment: -a
corrected  word alignment: za
---------------------------------------------------------
choice 2
candidate: ya
edit distance: 1
misspelled word alignment: -a
corrected  word alignment: ya
---------------------------------------------------------
choice 3
candidate: ta
edit distance: 1
misspelled word alignment: -a
corrected  word alignment: ta
---------------------------------------------------------
MISSPELLED WORD: A
choice 1
candidate: za
edit distance: 1
misspelled word alignment: -a
corrected  word alignment: za
---------------------------------------------------------
choice 2
candidate: ya
edit distance: 1
misspelled word alignment: -a
corrected  word alignment: ya
---------------------------------------------------------
choice 3
candidate: ta
edit distance: 1
misspelled word alignment: -a
corrected  word alignment: ta
---------------------------------------------------------
MISSPELLED WORD: NOOW
choice 1
candidate: now
edit distance: 1
misspelled word alignment: noow
corrected  word alignment: n-ow
---------------------------------------------------------
choice 2
candidate: noo
edit distance: 1
misspelled word alignment: noow
corrected  word alignment: noo-
---------------------------------------------------------
choice 3
candidate: nohow
edit distance: 1
misspelled word alignment: no-ow
corrected  word alignment: nohow
---------------------------------------------------------
MISSPELLED WORD: TIIMEE
choice 1
candidate: time
edit distance: 2
misspelled word alignment: tiimee
corrected  word alignment: t-im-e
---------------------------------------------------------
MISSPELLED WORD: THEEE
choice 1
candidate: thee
edit distance: 1
misspelled word alignment: theee
corrected  word alignment: th-ee
---------------------------------------------------------
choice 2
candidate: three
edit distance: 2
misspelled word alignment: theee
corrected  word alignment: three
---------------------------------------------------------
choice 3
candidate: thete
edit distance: 2
misspelled word alignment: theee
corrected  word alignment: thete
---------------------------------------------------------
MISSPELLED WORD: THAY
choice 1
candidate: thy
edit distance: 1
misspelled word alignment: thay
corrected  word alignment: th-y
---------------------------------------------------------
choice 2
candidate: thawy
edit distance: 1
misspelled word alignment: tha-y
corrected  word alignment: thawy
---------------------------------------------------------
choice 3
candidate: tay
edit distance: 1
misspelled word alignment: thay
corrected  word alignment: t-ay
---------------------------------------------------------
MISSPELLED WORD: TEY
choice 1
candidate: trey
edit distance: 1
misspelled word alignment: t-ey
corrected  word alignment: trey
---------------------------------------------------------
choice 2
candidate: toey
edit distance: 1
misspelled word alignment: t-ey
corrected  word alignment: toey
---------------------------------------------------------
choice 3
candidate: they
edit distance: 1
misspelled word alignment: t-ey
corrected  word alignment: they
---------------------------------------------------------
MISSPELLED WORD: A
choice 1
candidate: za
edit distance: 1
misspelled word alignment: -a
corrected  word alignment: za
---------------------------------------------------------
choice 2
candidate: ya
edit distance: 1
misspelled word alignment: -a
corrected  word alignment: ya
---------------------------------------------------------
choice 3
candidate: ta
edit distance: 1
misspelled word alignment: -a
corrected  word alignment: ta
---------------------------------------------------------
MISSPELLED WORD: PALTY
choice 1
candidate: paty
edit distance: 1
misspelled word alignment: palty
corrected  word alignment: pa-ty
---------------------------------------------------------
choice 2
candidate: paly
edit distance: 1
misspelled word alignment: palty
corrected  word alignment: pal-y
---------------------------------------------------------
choice 3
candidate: paltry
edit distance: 1
misspelled word alignment: palt-y
corrected  word alignment: paltry
---------------------------------------------------------
MISSPELLED WORD: YLLOW
choice 1
candidate: yellow
edit distance: 1
misspelled word alignment: y-llow
corrected  word alignment: yellow
---------------------------------------------------------
choice 2
candidate: yow
edit distance: 2
misspelled word alignment: yllow
corrected  word alignment: y--ow
---------------------------------------------------------
choice 3
candidate: yellowy
edit distance: 2
misspelled word alignment: y-llow-
corrected  word alignment: yellowy
---------------------------------------------------------
MISSPELLED WORD: A
choice 1
candidate: za
edit distance: 1
misspelled word alignment: -a
corrected  word alignment: za
---------------------------------------------------------
choice 2
candidate: ya
edit distance: 1
misspelled word alignment: -a
corrected  word alignment: ya
---------------------------------------------------------
choice 3
candidate: ta
edit distance: 1
misspelled word alignment: -a
corrected  word alignment: ta
---------------------------------------------------------
MISSPELLED WORD: A
choice 1
candidate: za
edit distance: 1
misspelled word alignment: -a
corrected  word alignment: za
---------------------------------------------------------
choice 2
candidate: ya
edit distance: 1
misspelled word alignment: -a
corrected  word alignment: ya
---------------------------------------------------------
choice 3
candidate: ta
edit distance: 1
misspelled word alignment: -a
corrected  word alignment: ta
---------------------------------------------------------
MISSPELLED WORD: AGAN
choice 1
candidate: pagan
edit distance: 1
misspelled word alignment: -agan
corrected  word alignment: pagan
---------------------------------------------------------
choice 2
candidate: lagan
edit distance: 1
misspelled word alignment: -agan
corrected  word alignment: lagan
---------------------------------------------------------
choice 3
candidate: gan
edit distance: 1
misspelled word alignment: agan
corrected  word alignment: -gan
---------------------------------------------------------
MISSPELLED WORD: MHY
choice 1
candidate: my
edit distance: 1
misspelled word alignment: mhy
corrected  word alignment: m-y
---------------------------------------------------------
choice 2
candidate: mythy
edit distance: 2
misspelled word alignment: m--hy
corrected  word alignment: mythy
---------------------------------------------------------
choice 3
candidate: myc
edit distance: 2
misspelled word alignment: mhy-
corrected  word alignment: m-yc
---------------------------------------------------------
MISSPELLED WORD: I
choice 1
candidate: xi
edit distance: 1
misspelled word alignment: -i
corrected  word alignment: xi
---------------------------------------------------------
choice 2
candidate: ti
edit distance: 1
misspelled word alignment: -i
corrected  word alignment: ti
---------------------------------------------------------
choice 3
candidate: si
edit distance: 1
misspelled word alignment: -i
corrected  word alignment: si
---------------------------------------------------------
MISSPELLED WORD: A
choice 1
candidate: za
edit distance: 1
misspelled word alignment: -a
corrected  word alignment: za
---------------------------------------------------------
choice 2
candidate: ya
edit distance: 1
misspelled word alignment: -a
corrected  word alignment: ya
---------------------------------------------------------
choice 3
candidate: ta
edit distance: 1
misspelled word alignment: -a
corrected  word alignment: ta
---------------------------------------------------------
MISSPELLED WORD: I
choice 1
candidate: xi
edit distance: 1
misspelled word alignment: -i
corrected  word alignment: xi
---------------------------------------------------------
choice 2
candidate: ti
edit distance: 1
misspelled word alignment: -i
corrected  word alignment: ti
---------------------------------------------------------
choice 3
candidate: si
edit distance: 1
misspelled word alignment: -i
corrected  word alignment: si
---------------------------------------------------------
MISSPELLED WORD: LKE
choice 1
candidate: ylke
edit distance: 1
misspelled word alignment: -lke
corrected  word alignment: ylke
---------------------------------------------------------
choice 2
candidate: luke
edit distance: 1
misspelled word alignment: l-ke
corrected  word alignment: luke
---------------------------------------------------------
choice 3
candidate: loke
edit distance: 1
misspelled word alignment: l-ke
corrected  word alignment: loke
---------------------------------------------------------
MISSPELLED WORD: I
choice 1
candidate: xi
edit distance: 1
misspelled word alignment: -i
corrected  word alignment: xi
---------------------------------------------------------
choice 2
candidate: ti
edit distance: 1
misspelled word alignment: -i
corrected  word alignment: ti
---------------------------------------------------------
choice 3
candidate: si
edit distance: 1
misspelled word alignment: -i
corrected  word alignment: si
---------------------------------------------------------

 NUMBER OF MISSPELLED WORDS ACCORDING TO THE SCRABBLEDICTIONARY: 71
